{
    "data": [
        {
            "title": "Work",
            "url": "/work"
        },
        {
            "title": "About",
            "url": "/about"
        },
        {
            "title": "Sustainability",
            "url": "/sustainability"
        },
        {
            "title": "Ideas",
            "url": "/ideas"
        },
        {
            "title": "Careers",
            "url": "/careers"
        }
    ]
}